ETC5510: Introduction to Data Analysis
…
---
# Nodes and edges?

Network data can be thought of as two related tables, **nodes** and **edges**:

- **nodes** are connection points
- **edges** are the connections between points

---
# Example: Mad Men. (Nodes = characters from the series)

```r
madmen_nodes
## # A tibble: 45 x 2
##    label          gender
##    <chr>          <chr> 
##  1 Betty Draper   female
##  2 Don Draper     male  
##  3 Harry Crane    male  
##  4 Joan Holloway  female
##  5 Lane Pryce     male  
##  6 Peggy Olson    female
##  7 Pete Campbell  male  
##  8 Roger Sterling male  
##  9 Sal Romano     male  
## 10 Henry Francis  male  
## # … with 35 more rows
```

---
# Example: Mad Men. (Edges = how they are associated)

```r
madmen_edges
## # A tibble: 39 x 2
##    Name1        Name2           
##    <chr>        <chr>           
##  1 Betty Draper Henry Francis   
##  2 Betty Draper Random guy      
##  3 Don Draper   Allison         
##  4 Don Draper   Bethany Van Nuys
##  5 Don Draper   Betty Draper    
##  6 Don Draper   Bobbie Barrett  
##  7 Don Draper   Candace         
##  8 Don Draper   Doris           
##  9 Don Draper   Faye Miller     
## 10 Don Draper   Joy             
## # … with 29 more rows
```

---
# Let's get the madmen data into the right shape

```r
madmen_edges %>%
  rename(from_id = Name1, to_id = Name2) 
## # A tibble: 39 x 2
##    from_id      to_id           
##    <chr>        <chr>           
##  1 Betty Draper Henry Francis   
##  2 Betty Draper Random guy      
##  3 Don Draper   Allison         
##  4 Don Draper   Bethany Van Nuys
##  5 Don Draper   Betty Draper    
##  6 Don Draper   Bobbie Barrett  
##  7 Don Draper   Candace         
##  8 Don Draper   Doris           
##  9 Don Draper   Faye Miller     
## 10 Don Draper   Joy             
## # … with 29 more rows
```

---
# Let's get the madmen data into the right shape

```r
madmen_net <- madmen_edges %>%
  rename(from_id = Name1, to_id = Name2) %>%
* full_join(madmen_nodes,
*           by = c("from_id" = "label"))

madmen_net
## # A tibble: 75 x 3
##    from_id      to_id            gender
##    <chr>        <chr>            <chr> 
##  1 Betty Draper Henry Francis    female
##  2 Betty Draper Random guy       female
##  3 Don Draper   Allison          male  
##  4 Don Draper   Bethany Van Nuys male  
##  5 Don Draper   Betty Draper     male  
##  6 Don Draper   Bobbie Barrett   male  
##  7 Don Draper   Candace          male  
##  8 Don Draper   Doris            male  
##  9 Don Draper   Faye Miller      male  
## 10 Don Draper   Joy              male  
## # … with 65 more rows
```
…
.right-plot[
<img src="lecture_9a_files/figure-html/graph-plot-5-out-1.png" width="100%" style="display: block; margin: auto;" />
]

---
# Which character was most connected?

```r
madmen_edges %>% 
  pivot_longer(cols = c(Name1, Name2),
               names_to = "List",
               values_to = "Name") 
## # A tibble: 78 x 2
##    List  Name            
##    <chr> <chr>           
##  1 Name1 Betty Draper    
##  2 Name2 Henry Francis   
##  3 Name1 Betty Draper    
##  4 Name2 Random guy      
##  5 Name1 Don Draper      
##  6 Name2 Allison         
##  7 Name1 Don Draper      
##  8 Name2 Bethany Van Nuys
##  9 Name1 Don Draper      
## 10 Name2 Betty Draper    
## # … with 68 more rows
```

---
# Which character was most connected?

```r
madmen_edges %>% 
  pivot_longer(cols = c(Name1, Name2),
               names_to = "List",
               values_to = "Name") %>% 
  count(Name, sort = TRUE)
## # A tibble: 45 x 2
##    Name               n
##    <chr>          <int>
##  1 Don Draper        14
##  2 Roger Sterling     6
##  3 Peggy Olson        5
##  4 Pete Campbell      4
##  5 Betty Draper       3
##  6 Joan Holloway      3
##  7 Lane Pryce         3
##  8 Harry Crane        2
##  9 Sal Romano         2
## 10 Abe Drexler        1
## # … with 35 more rows
```
…
*Source: [wikicommons](https://commons.wikimedia.org/wiki/File:Harry_Potter_Platform_Kings_Cross.jpg)*

---
# Example: Harry Potter characters

There is a connection between two students if one provides emotional support to the other at some point in the book. 
- Code to pull the data together is provided by Sam Tyner [here](https://github.com/sctyner/geomnet/blob/master/README.Rmd#harry-potter-peer-support-network).

---
# Harry potter data as nodes and edges

```r
hp_all
## # A tibble: 720 x 6
##    book  from_id            to_id              schoolyear gender house     
##    <chr> <chr>              <chr>                   <dbl> <chr>  <chr>     
##  1 1     Dean Thomas        Harry James Potter       1991 M      Gryffindor
##  2 1     Dean Thomas        Hermione Granger         1991 M      Gryffindor
##  3 1     Dean Thomas        Neville Longbottom       1991 M      Gryffindor
##  4 1     Dean Thomas        Ronald Weasley           1991 M      Gryffindor
##  5 1     Dean Thomas        Seamus Finnigan          1991 M      Gryffindor
##  6 1     Fred Weasley       George Weasley           1989 M      Gryffindor
##  7 1     Fred Weasley       Harry James Potter       1989 M      Gryffindor
##  8 1     George Weasley     Fred Weasley             1989 M      Gryffindor
##  9 1     George Weasley     Harry James Potter       1989 M      Gryffindor
## 10 1     Harry James Potter Dean Thomas              1991 M      Gryffindor
## # … with 710 more rows
```
…
---
# Quantitative association matrices

We would need to turn this into an edge data set:

```
## # A tibble: 25 x 3
##    from  to    count
##    <chr> <chr> <dbl>
##  1 Meg   Meg       0
##  2 Tay   Meg       5
##  3 Yat   Meg       4
##  4 Zili  Meg       1
##  5 Jess  Meg       1
##  6 Meg   Tay       5
##  7 Tay   Tay       0
##  8 Yat   Tay       4
##  9 Zili  Tay       2
## 10 Jess  Tay       1
## # … with 15 more rows
```
…
```r
rates_stable <- rates_cv %>%
  filter(cv < quantile(cv, 0.25))
```

---

# Filter out low cv currencies using pivot and an anti join

```r
rates_sub <- rates %>% 
  pivot_longer(cols = -date, names_to = "currency") %>% 
  anti_join(rates_stable)
rates_sub
## # A tibble: 14,732 x 3
##    date       currency   value
##    <date>     <chr>      <dbl>
##  1 2018-05-14 AFN        71.2 
##  2 2018-05-14 ALL       106.  
##  3 2018-05-14 ANG         1.79
##  4 2018-05-14 AOA       230.  
##  5 2018-05-14 ARS        25.0 
##  6 2018-05-14 AUD         1.33
##  7 2018-05-14 BAM         1.63
##  8 2018-05-14 BDT        84.7 
##  9 2018-05-14 BGN         1.64
## 10 2018-05-14 BIF      1767.  
## # … with 14,722 more rows
```
…
---
# Create network: Gather data into long form, filter based on similarity

Here only the pairs of currencies who are closer than "4" to each other are kept. 

```r
distance_tbl
## # A tibble: 266 x 3
##    from_currency to_currency distance
##    <chr>         <chr>          <dbl>
##  1 ANG           CNH             2.98
##  2 ANG           CNY             3.24
##  3 ANG           IRR             3.73
##  4 ANG           TJS             3.60
##  5 ANG           VND             3.42
##  6 AOA           JMD             3.66
##  7 AOA           KZT             2.11
##  8 AOA           LAK             3.55
##  9 AOA           MMK             2.19
## 10 AOA           MYR             2.17
## # … with 256 more rows
```
…
