ETC5510: Introduction to Data Analysis
…
---
# Different sources of sentiment

- The `nrc` lexicon categorizes words in a binary fashion ("yes"/"no") into categories of positive, negative, anger, anticipation, disgust, fear, joy, sadness, surprise, and trust. 
- The `bing` lexicon categorizes words in a binary fashion into positive and negative categories. 
- The `AFINN` lexicon assigns words with a score that runs between -5 and 5, with negative scores indicating negative sentiment and positive scores indicating positive sentiment.

---

# Different sources of sentiment

```r
get_sentiments("afinn")
## # A tibble: 2,477 x 2
##    word       value
##    <chr>      <dbl>
##  1 abandon       -2
##  2 abandoned     -2
##  3 abandons      -2
##  4 abducted      -2
##  5 abduction     -2
##  6 abductions    -2
##  7 abhor         -3
##  8 abhorred      -3
##  9 abhorrent     -3
## 10 abhors        -3
## # … with 2,467 more rows
```
…
---

# Exploring sentiment in Jane Austen

```r
tidy_books
## # A tibble: 725,055 x 4
##    book                linenumber chapter word       
##    <fct>                    <int>   <int> <chr>      
##  1 Sense & Sensibility          1       0 sense      
##  2 Sense & Sensibility          1       0 and        
##  3 Sense & Sensibility          1       0 sensibility
##  4 Sense & Sensibility          3       0 by         
##  5 Sense & Sensibility          3       0 jane       
##  6 Sense & Sensibility          3       0 austen     
##  7 Sense & Sensibility          5       0 1811       
##  8 Sense & Sensibility         10       1 chapter    
##  9 Sense & Sensibility         10       1 1          
## 10 Sense & Sensibility         13       1 the        
## # … with 725,045 more rows
```

---
# Count joyful words in "Emma"

```r
nrc_joy <- get_sentiments("nrc") %>% 
  filter(sentiment == "joy")

tidy_books %>%
  filter(book == "Emma") %>%
  inner_join(nrc_joy) %>%
  count(word, sort = TRUE)
## # A tibble: 303 x 2
##    word        n
##    <chr>   <int>
##  1 good      359
##  2 young     192
##  3 friend    166
##  4 hope      143
##  5 happy     125
##  6 love      117
##  7 deal       92
##  8 found      92
##  9 present    89
## 10 kind       82
## # … with 293 more rows
```
…
emma_afinn <- tidy_books %>%
  filter(book == "Emma") %>%
  inner_join(get_sentiments("afinn"))
```
]

---
# Comparing lexicons

```r
emma_nrc
## # A tibble: 13,944 x 5
##    book  linenumber chapter word       sentiment
##    <fct>      <int>   <int> <chr>      <chr>    
##  1 Emma          15       1 clever     positive 
##  2 Emma          16       1 happy      positive 
##  3 Emma          16       1 blessings  positive 
##  4 Emma          17       1 existence  positive 
##  5 Emma          18       1 distress   negative 
##  6 Emma          21       1 marriage   positive 
##  7 Emma          22       1 mistress   negative 
##  8 Emma          22       1 mother     negative 
##  9 Emma          22       1 mother     positive 
## 10 Emma          23       1 indistinct negative 
## # … with 13,934 more rows
```

---
# Comparing lexicons

```r
emma_afinn
## # A tibble: 10,901 x 5
##    book  linenumber chapter word         value
##    <fct>      <int>   <int> <chr>        <dbl>
##  1 Emma          15       1 clever           2
##  2 Emma          15       1 rich             2
##  3 Emma          15       1 comfortable      2
##  4 Emma          16       1 happy            3
##  5 Emma          16       1 best             3
##  6 Emma          18       1 distress        -2
##  7 Emma          20       1 affectionate     3
##  8 Emma          22       1 died            -3
##  9 Emma          24       1 excellent        3
## 10 Emma          25       1 fallen          -2
## # … with 10,891 more rows
```
…
